{
  "formatVersion": 1,
  "database": {
    "version": 13,
    "identityHash": "e446632229e3efc2ffc0de64777ef034",
    "entities": [
      {
        "tableName": "Way",
        "createSql": "CREATE TABLE IF NOT EXISTS `${TABLE_NAME}` (`Number` INTEGER PRIMARY KEY AUTOINCREMENT NOT NULL, `startPoint` TEXT, `endPoint` TEXT, `distance` REAL NOT NULL, `wayTime` REAL NOT NULL, `missTime` INTEGER NOT NULL, `endHour` INTEGER NOT NULL, `endMinute` INTEGER NOT NULL, `startHour` INTEGER NOT NULL, `startMinute` INTEGER NOT NULL, `timeStartWay` INTEGER NOT NULL, `timeEndWay` INTEGER NOT NULL, `DATE` INTEGER NOT NULL, `minuteToGo` INTEGER NOT NULL, `completed` INTEGER, `year` INTEGER NOT NULL, `month` INTEGER NOT NULL, `day` INTEGER NOT NULL)",
        "fields": [
          {
            "fieldPath": "Number",
            "columnName": "Number",
            "affinity": "INTEGER",
            "notNull": true
          },
          {
            "fieldPath": "startPoint",
            "columnName": "startPoint",
            "affinity": "TEXT",
            "notNull": false
          },
          {
            "fieldPath": "endPoint",
            "columnName": "endPoint",
            "affinity": "TEXT",
            "notNull": false
          },
          {
            "fieldPath": "distance",
            "columnName": "distance",
            "affinity": "REAL",
            "notNull": true
          },
          {
            "fieldPath": "wayTime",
            "columnName": "wayTime",
            "affinity": "REAL",
            "notNull": true
          },
          {
            "fieldPath": "missTime",
            "columnName": "missTime",
            "affinity": "INTEGER",
            "notNull": true
          },
          {
            "fieldPath": "endHour",
            "columnName": "endHour",
            "affinity": "INTEGER",
            "notNull": true
          },
          {
            "fieldPath": "endMinute",
            "columnName": "endMinute",
            "affinity": "INTEGER",
            "notNull": true
          },
          {
            "fieldPath": "startHour",
            "columnName": "startHour",
            "affinity": "INTEGER",
            "notNull": true
          },
          {
            "fieldPath": "startMinute",
            "columnName": "startMinute",
            "affinity": "INTEGER",
            "notNull": true
          },
          {
            "fieldPath": "timeStartWay",
            "columnName": "timeStartWay",
            "affinity": "INTEGER",
            "notNull": true
          },
          {
            "fieldPath": "timeEndWay",
            "columnName": "timeEndWay",
            "affinity": "INTEGER",
            "notNull": true
          },
          {
            "fieldPath": "DATE",
            "columnName": "DATE",
            "affinity": "INTEGER",
            "notNull": true
          },
          {
            "fieldPath": "minuteToGo",
            "columnName": "minuteToGo",
            "affinity": "INTEGER",
            "notNull": true
          },
          {
            "fieldPath": "completed",
            "columnName": "completed",
            "affinity": "INTEGER",
            "notNull": false
          },
          {
            "fieldPath": "year",
            "columnName": "year",
            "affinity": "INTEGER",
            "notNull": true
          },
          {
            "fieldPath": "month",
            "columnName": "month",
            "affinity": "INTEGER",
            "notNull": true
          },
          {
            "fieldPath": "day",
            "columnName": "day",
            "affinity": "INTEGER",
            "notNull": true
          }
        ],
        "primaryKey": {
          "columnNames": [
            "Number"
          ],
          "autoGenerate": true
        },
        "indices": [],
        "foreignKeys": []
      }
    ],
    "setupQueries": [
      "CREATE TABLE IF NOT EXISTS room_master_table (id INTEGER PRIMARY KEY,identity_hash TEXT)",
      "INSERT OR REPLACE INTO room_master_table (id,identity_hash) VALUES(42, \"e446632229e3efc2ffc0de64777ef034\")"
    ]
  }
}