{
  "formatVersion": 1,
  "database": {
    "version": 8,
    "identityHash": "0ac8842fb138af85b1202a4987765d57",
    "entities": [
      {
        "tableName": "Way",
        "createSql": "CREATE TABLE IF NOT EXISTS `${TABLE_NAME}` (`Number` INTEGER PRIMARY KEY AUTOINCREMENT NOT NULL, `startPoint` TEXT, `endPoint` TEXT, `distance` REAL NOT NULL, `time` REAL NOT NULL, `missTime` INTEGER NOT NULL, `HOURS_WAY` INTEGER NOT NULL, `MINUTE_WAY` INTEGER NOT NULL, `DATE` INTEGER NOT NULL, `minuteToGo` INTEGER NOT NULL, `completed` INTEGER, `year` INTEGER NOT NULL, `month` INTEGER NOT NULL, `day` INTEGER NOT NULL)",
        "fields": [
          {
            "fieldPath": "Number",
            "columnName": "Number",
            "affinity": "INTEGER",
            "notNull": true
          },
          {
            "fieldPath": "startPoint",
            "columnName": "startPoint",
            "affinity": "TEXT",
            "notNull": false
          },
          {
            "fieldPath": "endPoint",
            "columnName": "endPoint",
            "affinity": "TEXT",
            "notNull": false
          },
          {
            "fieldPath": "distance",
            "columnName": "distance",
            "affinity": "REAL",
            "notNull": true
          },
          {
            "fieldPath": "time",
            "columnName": "time",
            "affinity": "REAL",
            "notNull": true
          },
          {
            "fieldPath": "missTime",
            "columnName": "missTime",
            "affinity": "INTEGER",
            "notNull": true
          },
          {
            "fieldPath": "HOURS_WAY",
            "columnName": "HOURS_WAY",
            "affinity": "INTEGER",
            "notNull": true
          },
          {
            "fieldPath": "MINUTE_WAY",
            "columnName": "MINUTE_WAY",
            "affinity": "INTEGER",
            "notNull": true
          },
          {
            "fieldPath": "DATE",
            "columnName": "DATE",
            "affinity": "INTEGER",
            "notNull": true
          },
          {
            "fieldPath": "minuteToGo",
            "columnName": "minuteToGo",
            "affinity": "INTEGER",
            "notNull": true
          },
          {
            "fieldPath": "completed",
            "columnName": "completed",
            "affinity": "INTEGER",
            "notNull": false
          },
          {
            "fieldPath": "year",
            "columnName": "year",
            "affinity": "INTEGER",
            "notNull": true
          },
          {
            "fieldPath": "month",
            "columnName": "month",
            "affinity": "INTEGER",
            "notNull": true
          },
          {
            "fieldPath": "day",
            "columnName": "day",
            "affinity": "INTEGER",
            "notNull": true
          }
        ],
        "primaryKey": {
          "columnNames": [
            "Number"
          ],
          "autoGenerate": true
        },
        "indices": [],
        "foreignKeys": []
      }
    ],
    "setupQueries": [
      "CREATE TABLE IF NOT EXISTS room_master_table (id INTEGER PRIMARY KEY,identity_hash TEXT)",
      "INSERT OR REPLACE INTO room_master_table (id,identity_hash) VALUES(42, \"0ac8842fb138af85b1202a4987765d57\")"
    ]
  }
}